No.,Time,Source,Destination,Protocol,Length,Source address,Receiver address,Transmitter address,Destination address,Info
1,0,Cisco-Li_18:78:d0,Broadcast,802.11,332,58:6d:8f:18:78:d0,ff:ff:ff:ff:ff:ff,58:6d:8f:18:78:d0,ff:ff:ff:ff:ff:ff,"Beacon frame, SN=3610, FN=0, Flags=........, BI=100, SSID=Artikel 87 van de Reglementen"
2,0.009943,Cisco-Li_18:78:d0,IntelCor_32:02:53,802.11,419,58:6d:8f:18:78:d0,44:85:00:32:02:53,58:6d:8f:18:78:d0,44:85:00:32:02:53,"Probe Response, SN=3611, FN=0, Flags=....R..., BI=100, SSID=Artikel 87 van de Reglementen"
3,0.02823,Tp-LinkT_99:dd:53,IntelCor_32:02:53,802.11,408,50:c7:bf:99:dd:53,44:85:00:32:02:53,50:c7:bf:99:dd:53,44:85:00:32:02:53,"Probe Response, SN=3656, FN=0, Flags=....R..., BI=100, SSID=TP-LINK_DD54"
4,0.035848,Cisco-Li_54:10:db,IntelCor_32:02:53,802.11,395,c8:b3:73:54:10:db,44:85:00:32:02:53,c8:b3:73:54:10:db,44:85:00:32:02:53,"Probe Response, SN=1184, FN=0, Flags=....R..., BI=100, SSID=MrFlufflyBottom"
5,0.039497,BelkinIn_8d:01:74,IntelCor_32:02:53,802.11,406,14:91:82:8d:01:74,44:85:00:32:02:53,14:91:82:8d:01:74,44:85:00:32:02:53,"Probe Response, SN=141, FN=0, Flags=....R..., BI=100, SSID=JG-wifi"
6,0.042169,Cisco-Li_54:10:db,Broadcast,802.11,309,c8:b3:73:54:10:db,ff:ff:ff:ff:ff:ff,c8:b3:73:54:10:db,ff:ff:ff:ff:ff:ff,"Beacon frame, SN=1185, FN=0, Flags=........, BI=100, SSID=MrFlufflyBottom"
7,0.045587,Tp-LinkT_a5:4b:e2,Broadcast,802.11,283,a4:2b:b0:a5:4b:e2,ff:ff:ff:ff:ff:ff,a4:2b:b0:a5:4b:e2,ff:ff:ff:ff:ff:ff,"Beacon frame, SN=880, FN=0, Flags=........, BI=100, SSID=MP"
8,0.047649,Netgear_24:af:22,IntelCor_32:02:53,802.11,232,c0:3f:0e:24:af:22,44:85:00:32:02:53,c0:3f:0e:24:af:22,44:85:00:32:02:53,"Probe Response, SN=3121, FN=0, Flags=....R..., BI=100, SSID=Los Morenos en Camelot"
9,0.051377,TendaTec_48:b2:e0,Broadcast,802.11,335,c8:3a:35:48:b2:e0,ff:ff:ff:ff:ff:ff,c8:3a:35:48:b2:e0,ff:ff:ff:ff:ff:ff,"Beacon frame, SN=2345, FN=0, Flags=........, BI=100, SSID=Arezzo_in_Air"
10,0.058321,Netgear_24:af:22,Broadcast,802.11,238,c0:3f:0e:24:af:22,ff:ff:ff:ff:ff:ff,c0:3f:0e:24:af:22,ff:ff:ff:ff:ff:ff,"Beacon frame, SN=3122, FN=0, Flags=........, BI=100, SSID=Los Morenos en Camelot"
11,0.060502,BelkinIn_50:8e:4f,Broadcast,802.11,222,58:ef:68:50:8e:4f,ff:ff:ff:ff:ff:ff,58:ef:68:50:8e:4f,ff:ff:ff:ff:ff:ff,"Beacon frame, SN=1560, FN=0, Flags=........, BI=100, SSID=Stijn-gast"
12,0.062704,BelkinIn_50:8e:4e,Broadcast,802.11,299,58:ef:68:50:8e:4e,ff:ff:ff:ff:ff:ff,58:ef:68:50:8e:4e,ff:ff:ff:ff:ff:ff,"Beacon frame, SN=1561, FN=0, Flags=........, BI=100, SSID=Stijn"
13,0.066603,Cisco-Li_9e:fc:cc,Broadcast,802.11,308,c8:d7:19:9e:fc:cc,ff:ff:ff:ff:ff:ff,c8:d7:19:9e:fc:cc,ff:ff:ff:ff:ff:ff,"Beacon frame, SN=2605, FN=0, Flags=........, BI=100, SSID=Ruch's Netwerk"
14,0.088206,SitecomE_1f:94:20,Broadcast,802.11,329,64:d1:a3:1f:94:20,ff:ff:ff:ff:ff:ff,64:d1:a3:1f:94:20,ff:ff:ff:ff:ff:ff,"Beacon frame, SN=751, FN=0, Flags=........, BI=100, SSID=Sitecom1F9420"
15,0.093147,Tp-LinkT_99:dd:53,Broadcast,802.11,331,50:c7:bf:99:dd:53,ff:ff:ff:ff:ff:ff,50:c7:bf:99:dd:53,ff:ff:ff:ff:ff:ff,"Beacon frame, SN=3657, FN=0, Flags=........, BI=100, SSID=TP-LINK_DD54"
16,0.09559,BelkinIn_8d:01:74,Broadcast,802.11,320,14:91:82:8d:01:74,ff:ff:ff:ff:ff:ff,14:91:82:8d:01:74,ff:ff:ff:ff:ff:ff,"Beacon frame, SN=142, FN=0, Flags=........, BI=100, SSID=JG-wifi"
17,0.115095,Tp-LinkT_cd:4b:28,Broadcast,802.11,277,c0:4a:00:cd:4b:28,ff:ff:ff:ff:ff:ff,c0:4a:00:cd:4b:28,ff:ff:ff:ff:ff:ff,"Beacon frame, SN=1408, FN=0, Flags=........, BI=100, SSID=mentos"
18,0.133293,Tp-LinkT_cd:4b:28,IntelCor_32:02:53,802.11,438,c0:4a:00:cd:4b:28,44:85:00:32:02:53,c0:4a:00:cd:4b:28,44:85:00:32:02:53,"Probe Response, SN=1409, FN=0, Flags=....R..., BI=100, SSID=mentos[Malformed Packet]"
19,0.135878,AsustekC_7b:f5:39,IntelCor_32:02:53,802.11,307,ac:9e:17:7b:f5:39,44:85:00:32:02:53,ac:9e:17:7b:f5:39,44:85:00:32:02:53,"Probe Response, SN=717, FN=0, Flags=....R..., BI=100, SSID=cam24.korvezee.aivd.nl"
20,0.140559,Tp-LinkT_cd:4b:28,IntelCor_32:02:53,802.11,438,c0:4a:00:cd:4b:28,44:85:00:32:02:53,c0:4a:00:cd:4b:28,44:85:00:32:02:53,"Probe Response, SN=1410, FN=0, Flags=........, BI=100, SSID=mentos[Malformed Packet]"
21,0.21872,Cisco-Li_68:19:dc,IntelCor_32:02:53,802.11,166,00:18:f8:68:19:dc,44:85:00:32:02:53,00:18:f8:68:19:dc,44:85:00:32:02:53,"Probe Response, SN=2412, FN=0, Flags=....R..., BI=100, SSID=Huize KTV GR"
22,0.307262,AsustekC_69:08:a1,Broadcast,802.11,289,38:2c:4a:69:08:a1,ff:ff:ff:ff:ff:ff,38:2c:4a:69:08:a1,ff:ff:ff:ff:ff:ff,"Beacon frame, SN=25, FN=0, Flags=........, BI=100, SSID=Stem Stijn de Vreede VVD nr.7"
23,0.311455,Tp-LinkT_51:96:f6,IntelCor_32:02:53,802.11,230,f8:1a:67:51:96:f6,44:85:00:32:02:53,f8:1a:67:51:96:f6,44:85:00:32:02:53,"Probe Response, SN=3007, FN=0, Flags=........, BI=100, SSID=botnet"
24,0.317916,Tp-LinkT_8f:0e:6a,IntelCor_32:02:53,802.11,403,84:16:f9:8f:0e:6a,44:85:00:32:02:53,84:16:f9:8f:0e:6a,44:85:00:32:02:53,"Probe Response, SN=1548, FN=0, Flags=....R..., BI=100, SSID=TP-LINK_0E6A"
25,0.323349,Tp-LinkT_8f:0e:6a,Broadcast,802.11,293,84:16:f9:8f:0e:6a,ff:ff:ff:ff:ff:ff,84:16:f9:8f:0e:6a,ff:ff:ff:ff:ff:ff,"Beacon frame, SN=1549, FN=0, Flags=........, BI=100, SSID=TP-LINK_0E6A"
26,0.339598,Tp-LinkT_8f:0e:6a,IntelCor_32:02:53,802.11,403,84:16:f9:8f:0e:6a,44:85:00:32:02:53,84:16:f9:8f:0e:6a,44:85:00:32:02:53,"Probe Response, SN=1550, FN=0, Flags=........, BI=100, SSID=TP-LINK_0E6A"
27,0.370105,D-LinkIn_60:51:3c,Broadcast,802.11,381,c8:be:19:60:51:3c,ff:ff:ff:ff:ff:ff,c8:be:19:60:51:3c,ff:ff:ff:ff:ff:ff,"Beacon frame, SN=1768, FN=0, Flags=........, BI=100, SSID=Sibolangit"
28,0.383606,Tp-LinkT_52:f2:2a,Broadcast,802.11,258,e8:de:27:52:f2:2a,ff:ff:ff:ff:ff:ff,e8:de:27:52:f2:2a,ff:ff:ff:ff:ff:ff,"Beacon frame, SN=1766, FN=0, Flags=........, BI=100, SSID=aajeto outpost 4"
29,0.391933,SitecomE_90:f4:80,Broadcast,802.11,373,00:0c:f6:90:f4:80,ff:ff:ff:ff:ff:ff,00:0c:f6:90:f4:80,ff:ff:ff:ff:ff:ff,"Beacon frame, SN=2250, FN=0, Flags=........, BI=100, SSID=Sitecom90F480"
30,0.400879,Tp-LinkT_e5:4c:84,Broadcast,802.11,326,84:16:f9:e5:4c:84,ff:ff:ff:ff:ff:ff,84:16:f9:e5:4c:84,ff:ff:ff:ff:ff:ff,"Beacon frame, SN=2068, FN=0, Flags=........, BI=100, SSID=How Deep Is Your Love"
31,0.411803,SitecomE_94:e2:9d,IntelCor_32:02:53,802.11,427,00:0c:f6:94:e2:9d,44:85:00:32:02:53,00:0c:f6:94:e2:9d,44:85:00:32:02:53,"Probe Response, SN=782, FN=0, Flags=........, BI=100, SSID=2400000000Hz Kvz 165 Internet"
32,0.41923,SitecomE_90:f4:80,IntelCor_32:02:53,802.11,477,00:0c:f6:90:f4:80,44:85:00:32:02:53,00:0c:f6:90:f4:80,44:85:00:32:02:53,"Probe Response, SN=1594, FN=0, Flags=........, BI=100, SSID=Sitecom90F480"
33,0.422958,SitecomE_3d:15:05,IntelCor_32:02:53,802.11,446,64:d1:a3:3d:15:05,44:85:00:32:02:53,64:d1:a3:3d:15:05,44:85:00:32:02:53,"Probe Response, SN=3303, FN=0, Flags=........, BI=100, SSID=Cobra"
34,0.425654,Cisco-Li_fc:2c:83,Broadcast,802.11,157,00:1d:7e:fc:2c:83,ff:ff:ff:ff:ff:ff,00:1d:7e:fc:2c:83,ff:ff:ff:ff:ff:ff,"Beacon frame, SN=840, FN=0, Flags=........, BI=100, SSID=KVZ 120"
35,0.429864,SitecomE_d5:4f:bc,Broadcast,802.11,317,00:0c:f6:d5:4f:bc,ff:ff:ff:ff:ff:ff,00:0c:f6:d5:4f:bc,ff:ff:ff:ff:ff:ff,"Beacon frame, SN=271, FN=0, Flags=........, BI=100, SSID=SitecomD54FBC"
36,0.440473,Tp-LinkT_6b:77:d5,Broadcast,802.11,328,50:c7:bf:6b:77:d5,ff:ff:ff:ff:ff:ff,50:c7:bf:6b:77:d5,ff:ff:ff:ff:ff:ff,"Beacon frame, SN=1091, FN=0, Flags=........, BI=100, SSID=Wijffie"
37,0.443598,SitecomE_e7:2f:20,Broadcast,802.11,310,00:0c:f6:e7:2f:20,ff:ff:ff:ff:ff:ff,00:0c:f6:e7:2f:20,ff:ff:ff:ff:ff:ff,"Beacon frame, SN=3846, FN=0, Flags=........, BI=100, SSID=KVZ187"
38,0.463244,SitecomE_94:e2:9d,Broadcast,802.11,313,00:0c:f6:94:e2:9d,ff:ff:ff:ff:ff:ff,00:0c:f6:94:e2:9d,ff:ff:ff:ff:ff:ff,"Beacon frame, SN=832, FN=0, Flags=........, BI=100, SSID=2400000000Hz Kvz 165 Internet"
39,0.48384,Tp-LinkT_52:f2:2a,Broadcast,802.11,258,e8:de:27:52:f2:2a,ff:ff:ff:ff:ff:ff,e8:de:27:52:f2:2a,ff:ff:ff:ff:ff:ff,"Beacon frame, SN=1768, FN=0, Flags=........, BI=100, SSID=aajeto outpost 4"
40,0.486882,BelkinIn_7b:68:e6,Broadcast,802.11,350,14:91:82:7b:68:e6,ff:ff:ff:ff:ff:ff,14:91:82:7b:68:e6,ff:ff:ff:ff:ff:ff,"Beacon frame, SN=2331, FN=0, Flags=........, BI=100, SSID=FryslanBoppe"
41,0.488905,Tp-LinkT_1f:85:93,Broadcast,802.11,275,f4:83:cd:1f:85:93,ff:ff:ff:ff:ff:ff,f4:83:cd:1f:85:93,ff:ff:ff:ff:ff:ff,"Beacon frame, SN=3136, FN=0, Flags=........, BI=100, SSID=TP-LINK_zj"
42,0.491542,SitecomE_90:f4:80,Broadcast,802.11,373,00:0c:f6:90:f4:80,ff:ff:ff:ff:ff:ff,00:0c:f6:90:f4:80,ff:ff:ff:ff:ff:ff,"Beacon frame, SN=2251, FN=0, Flags=........, BI=100, SSID=Sitecom90F480"
43,0.51016,Netgear_9b:a4:44,Broadcast,802.11,143,00:18:4d:9b:a4:44,ff:ff:ff:ff:ff:ff,00:18:4d:9b:a4:44,ff:ff:ff:ff:ff:ff,"Beacon frame, SN=3349, FN=0, Flags=........, BI=100, SSID=J"
44,0.563674,Tp-LinkT_1f:85:95,IntelCor_32:02:53,802.11,296,f4:83:cd:1f:85:95,44:85:00:32:02:53,f4:83:cd:1f:85:95,44:85:00:32:02:53,"Probe Response, SN=1205, FN=0, Flags=........, BI=100, SSID=TP-LINK_Domestic"
45,63.079178,TendaTec_48:b2:e0,IntelCor_32:02:53,802.11,329,c8:3a:35:48:b2:e0,44:85:00:32:02:53,c8:3a:35:48:b2:e0,44:85:00:32:02:53,"Probe Response, SN=3008, FN=0, Flags=........, BI=100, SSID=Arezzo_in_Air"
46,63.086588,AsustekC_7b:f5:39,IntelCor_32:02:53,802.11,307,ac:9e:17:7b:f5:39,44:85:00:32:02:53,ac:9e:17:7b:f5:39,44:85:00:32:02:53,"Probe Response, SN=2045, FN=0, Flags=....R..., BI=100, SSID=cam24.korvezee.aivd.nl"
47,63.096132,Cisco-Li_18:78:d0,IntelCor_32:02:53,802.11,419,58:6d:8f:18:78:d0,44:85:00:32:02:53,58:6d:8f:18:78:d0,44:85:00:32:02:53,"Probe Response, SN=170, FN=0, Flags=....R..., BI=100, SSID=Artikel 87 van de Reglementen"
48,63.101929,Netgear_24:af:22,IntelCor_32:02:53,802.11,232,c0:3f:0e:24:af:22,44:85:00:32:02:53,c0:3f:0e:24:af:22,44:85:00:32:02:53,"Probe Response, SN=3778, FN=0, Flags=....R..., BI=100, SSID=Los Morenos en Camelot"
49,63.121269,Cisco-Li_1d:6a:02,Broadcast,802.11,291,c8:b3:73:1d:6a:02,ff:ff:ff:ff:ff:ff,c8:b3:73:1d:6a:02,ff:ff:ff:ff:ff:ff,"Beacon frame, SN=2465, FN=0, Flags=........, BI=100, SSID=Linksys00671"
50,63.125018,Tp-LinkT_a5:4b:e2,Broadcast,802.11,283,a4:2b:b0:a5:4b:e2,ff:ff:ff:ff:ff:ff,a4:2b:b0:a5:4b:e2,ff:ff:ff:ff:ff:ff,"Beacon frame, SN=1515, FN=0, Flags=........, BI=100, SSID=MP"
51,63.128309,BelkinIn_50:8e:4f,Broadcast,802.11,222,58:ef:68:50:8e:4f,ff:ff:ff:ff:ff:ff,58:ef:68:50:8e:4f,ff:ff:ff:ff:ff:ff,"Beacon frame, SN=2760, FN=0, Flags=........, BI=100, SSID=Stijn-gast"
52,63.130542,BelkinIn_50:8e:4e,Broadcast,802.11,299,58:ef:68:50:8e:4e,ff:ff:ff:ff:ff:ff,58:ef:68:50:8e:4e,ff:ff:ff:ff:ff:ff,"Beacon frame, SN=2761, FN=0, Flags=........, BI=100, SSID=Stijn"
53,63.13314,TendaTec_48:b2:e0,Broadcast,802.11,335,c8:3a:35:48:b2:e0,ff:ff:ff:ff:ff:ff,c8:3a:35:48:b2:e0,ff:ff:ff:ff:ff:ff,"Beacon frame, SN=3009, FN=0, Flags=........, BI=100, SSID=Arezzo_in_Air"
54,63.137203,Netgear_24:af:22,Broadcast,802.11,238,c0:3f:0e:24:af:22,ff:ff:ff:ff:ff:ff,c0:3f:0e:24:af:22,ff:ff:ff:ff:ff:ff,"Beacon frame, SN=3779, FN=0, Flags=........, BI=100, SSID=Los Morenos en Camelot"
55,63.142643,fa:8f:ca:77:32:ae,Broadcast,802.11,199,fa:8f:ca:77:32:ae,ff:ff:ff:ff:ff:ff,fa:8f:ca:77:32:ae,ff:ff:ff:ff:ff:ff,"Beacon frame, SN=527, FN=0, Flags=........, BI=100, SSID=Broadcast"
56,63.161203,AsustekC_7b:f5:38,IntelCor_32:02:53,802.11,314,ac:9e:17:7b:f5:38,44:85:00:32:02:53,ac:9e:17:7b:f5:38,44:85:00:32:02:53,"Probe Response, SN=2046, FN=0, Flags=........, BI=100, SSID=bus24.regiohaaglanden.aivd.nl"
57,63.163569,AsustekC_7b:f5:38,Broadcast,802.11,320,ac:9e:17:7b:f5:38,ff:ff:ff:ff:ff:ff,ac:9e:17:7b:f5:38,ff:ff:ff:ff:ff:ff,"Beacon frame, SN=2047, FN=0, Flags=........, BI=100, SSID=bus24.regiohaaglanden.aivd.nl"
58,63.188829,Tp-LinkT_cd:4b:28,IntelCor_32:02:53,802.11,438,c0:4a:00:cd:4b:28,44:85:00:32:02:53,c0:4a:00:cd:4b:28,44:85:00:32:02:53,"Probe Response, SN=2178, FN=0, Flags=....R..., BI=100, SSID=mentos[Malformed Packet]"
59,63.191537,AsustekC_7b:f5:38,IntelCor_32:02:53,802.11,314,ac:9e:17:7b:f5:38,44:85:00:32:02:53,ac:9e:17:7b:f5:38,44:85:00:32:02:53,"Probe Response, SN=2050, FN=0, Flags=........, BI=100, SSID=bus24.regiohaaglanden.aivd.nl"
60,63.200431,Tp-LinkT_cd:4b:28,IntelCor_32:02:53,802.11,438,c0:4a:00:cd:4b:28,44:85:00:32:02:53,c0:4a:00:cd:4b:28,44:85:00:32:02:53,"Probe Response, SN=2180, FN=0, Flags=....R..., BI=100, SSID=mentos[Malformed Packet]"
61,63.203737,AsustekC_7b:f5:39,IntelCor_32:02:53,802.11,307,ac:9e:17:7b:f5:39,44:85:00:32:02:53,ac:9e:17:7b:f5:39,44:85:00:32:02:53,"Probe Response, SN=2051, FN=0, Flags=........, BI=100, SSID=cam24.korvezee.aivd.nl"
62,63.22021,AsustekC_7b:f5:38,IntelCor_32:02:53,802.11,314,ac:9e:17:7b:f5:38,44:85:00:32:02:53,ac:9e:17:7b:f5:38,44:85:00:32:02:53,"Probe Response, SN=2052, FN=0, Flags=....R..., BI=100, SSID=bus24.regiohaaglanden.aivd.nl"
63,63.223748,Tp-LinkT_cd:4b:28,IntelCor_32:02:53,802.11,438,c0:4a:00:cd:4b:28,44:85:00:32:02:53,c0:4a:00:cd:4b:28,44:85:00:32:02:53,"Probe Response, SN=2181, FN=0, Flags=........, BI=100, SSID=mentos[Malformed Packet]"
64,63.226524,AsustekC_7b:f5:38,IntelCor_32:02:53,802.11,314,ac:9e:17:7b:f5:38,44:85:00:32:02:53,ac:9e:17:7b:f5:38,44:85:00:32:02:53,"Probe Response, SN=2052, FN=0, Flags=....R..., BI=100, SSID=bus24.regiohaaglanden.aivd.nl"
65,63.238519,Tp-LinkT_dd:08:06,IntelCor_32:02:53,802.11,445,10:fe:ed:dd:08:06,44:85:00:32:02:53,10:fe:ed:dd:08:06,44:85:00:32:02:53,"Probe Response, SN=3670, FN=0, Flags=....R..., BI=100, SSID=patatasbravas[Malformed Packet]"
66,63.258325,Cisco-Li_68:19:dc,IntelCor_32:02:53,802.11,166,00:18:f8:68:19:dc,44:85:00:32:02:53,00:18:f8:68:19:dc,44:85:00:32:02:53,"Probe Response, SN=2568, FN=0, Flags=........, BI=100, SSID=Huize KTV GR"
67,63.28633,AsustekC_69:08:a0,Broadcast,802.11,317,38:2c:4a:69:08:a0,ff:ff:ff:ff:ff:ff,38:2c:4a:69:08:a0,ff:ff:ff:ff:ff:ff,"Beacon frame, SN=2756, FN=0, Flags=........, BI=100, SSID=Stem Stijn de Vreede VVD nr.7! "
68,63.288474,AsustekC_69:08:a1,Broadcast,802.11,289,38:2c:4a:69:08:a1,ff:ff:ff:ff:ff:ff,38:2c:4a:69:08:a1,ff:ff:ff:ff:ff:ff,"Beacon frame, SN=2757, FN=0, Flags=........, BI=100, SSID=Stem Stijn de Vreede VVD nr.7"
69,63.296332,Cisco-Li_68:19:dc,Broadcast,802.11,172,00:18:f8:68:19:dc,ff:ff:ff:ff:ff:ff,00:18:f8:68:19:dc,ff:ff:ff:ff:ff:ff,"Beacon frame, SN=2569, FN=0, Flags=........, BI=100, SSID=Huize KTV GR"
70,63.307774,AsustekC_69:08:a0,IntelCor_32:02:53,802.11,459,38:2c:4a:69:08:a0,44:85:00:32:02:53,38:2c:4a:69:08:a0,44:85:00:32:02:53,"Probe Response, SN=2759, FN=0, Flags=....R..., BI=100, SSID=Stem Stijn de Vreede VVD nr.7! "
71,63.310404,AsustekC_69:08:a1,IntelCor_32:02:53,802.11,283,38:2c:4a:69:08:a1,44:85:00:32:02:53,38:2c:4a:69:08:a1,44:85:00:32:02:53,"Probe Response, SN=2760, FN=0, Flags=........, BI=100, SSID=Stem Stijn de Vreede VVD nr.7"
72,63.315062,AsustekC_69:08:a2,IntelCor_32:02:53,802.11,283,38:2c:4a:69:08:a2,44:85:00:32:02:53,38:2c:4a:69:08:a2,44:85:00:32:02:53,"Probe Response, SN=2761, FN=0, Flags=........, BI=100, SSID=Stem Stijn de Vreede VVD nr.7"
73,63.317506,AsustekC_69:08:a2,IntelCor_32:02:53,802.11,283,38:2c:4a:69:08:a2,44:85:00:32:02:53,38:2c:4a:69:08:a2,44:85:00:32:02:53,"Probe Response, SN=2761, FN=0, Flags=....R..., BI=100, SSID=Stem Stijn de Vreede VVD nr.7"
74,63.323745,AsustekC_69:08:a3,IntelCor_32:02:53,802.11,283,38:2c:4a:69:08:a3,44:85:00:32:02:53,38:2c:4a:69:08:a3,44:85:00:32:02:53,"Probe Response, SN=2762, FN=0, Flags=........, BI=100, SSID=Stem Stijn de Vreede VVD nr.7"
75,63.326707,AsustekC_69:08:a3,IntelCor_32:02:53,802.11,283,38:2c:4a:69:08:a3,44:85:00:32:02:53,38:2c:4a:69:08:a3,44:85:00:32:02:53,"Probe Response, SN=2762, FN=0, Flags=....R..., BI=100, SSID=Stem Stijn de Vreede VVD nr.7"
76,63.32989,AsustekC_69:08:a3,IntelCor_32:02:53,802.11,283,38:2c:4a:69:08:a3,44:85:00:32:02:53,38:2c:4a:69:08:a3,44:85:00:32:02:53,"Probe Response, SN=2762, FN=0, Flags=....R..., BI=100, SSID=Stem Stijn de Vreede VVD nr.7"
77,63.352155,Tp-LinkT_fe:77:d6,Broadcast,802.11,289,c4:6e:1f:fe:77:d6,ff:ff:ff:ff:ff:ff,c4:6e:1f:fe:77:d6,ff:ff:ff:ff:ff:ff,"Beacon frame, SN=1765, FN=0, Flags=........, BI=100, SSID=Avincado"
78,63.364902,Tp-LinkT_51:96:f6,IntelCor_32:02:53,802.11,230,f8:1a:67:51:96:f6,44:85:00:32:02:53,f8:1a:67:51:96:f6,44:85:00:32:02:53,"Probe Response, SN=3878, FN=0, Flags=........, BI=100, SSID=botnet"
79,63.374455,Tp-LinkT_8f:0e:6a,IntelCor_32:02:53,802.11,403,84:16:f9:8f:0e:6a,44:85:00:32:02:53,84:16:f9:8f:0e:6a,44:85:00:32:02:53,"Probe Response, SN=2316, FN=0, Flags=....R..., BI=100, SSID=TP-LINK_0E6A"
80,63.378453,Tp-LinkT_51:96:f6,Broadcast,802.11,236,f8:1a:67:51:96:f6,ff:ff:ff:ff:ff:ff,f8:1a:67:51:96:f6,ff:ff:ff:ff:ff:ff,"Beacon frame, SN=3879, FN=0, Flags=........, BI=100, SSID=botnet"
81,63.395594,Tp-LinkT_9e:b9:c8,IntelCor_32:02:53,802.11,446,30:b5:c2:9e:b9:c8,44:85:00:32:02:53,30:b5:c2:9e:b9:c8,44:85:00:32:02:53,"Probe Response, SN=2951, FN=0, Flags=....R..., BI=100, SSID=TP-LINK_9EB9C8[Malformed Packet]"
82,63.39958,Tp-LinkT_8f:0e:6a,IntelCor_32:02:53,802.11,403,84:16:f9:8f:0e:6a,44:85:00:32:02:53,84:16:f9:8f:0e:6a,44:85:00:32:02:53,"Probe Response, SN=2317, FN=0, Flags=....R..., BI=100, SSID=TP-LINK_0E6A"
83,63.403933,Tp-LinkT_8f:0e:6a,Broadcast,802.11,293,84:16:f9:8f:0e:6a,ff:ff:ff:ff:ff:ff,84:16:f9:8f:0e:6a,ff:ff:ff:ff:ff:ff,"Beacon frame, SN=2318, FN=0, Flags=........, BI=100, SSID=TP-LINK_0E6A"
84,63.439886,D-LinkIn_60:51:3c,IntelCor_32:02:53,802.11,441,c8:be:19:60:51:3c,44:85:00:32:02:53,c8:be:19:60:51:3c,44:85:00:32:02:53,"Probe Response, SN=16, FN=0, Flags=........, BI=100, SSID=Sibolangit"
85,63.443608,D-LinkIn_60:51:3c,IntelCor_32:02:53,802.11,441,c8:be:19:60:51:3c,44:85:00:32:02:53,c8:be:19:60:51:3c,44:85:00:32:02:53,"Probe Response, SN=17, FN=0, Flags=........, BI=100, SSID=Sibolangit"
86,63.454118,D-LinkIn_60:51:3c,IntelCor_32:02:53,802.11,441,c8:be:19:60:51:3c,44:85:00:32:02:53,c8:be:19:60:51:3c,44:85:00:32:02:53,"Probe Response, SN=18, FN=0, Flags=........, BI=100, SSID=Sibolangit"
87,63.456953,D-LinkIn_60:51:3c,Broadcast,802.11,381,c8:be:19:60:51:3c,ff:ff:ff:ff:ff:ff,c8:be:19:60:51:3c,ff:ff:ff:ff:ff:ff,"Beacon frame, SN=2384, FN=0, Flags=........, BI=100, SSID=Sibolangit"
88,63.460606,Tp-LinkT_e5:4c:84,IntelCor_32:02:53,802.11,436,84:16:f9:e5:4c:84,44:85:00:32:02:53,84:16:f9:e5:4c:84,44:85:00:32:02:53,"Probe Response, SN=3445, FN=0, Flags=....R..., BI=100, SSID=How Deep Is Your Love"
89,63.470598,Tp-LinkT_6b:77:d5,IntelCor_32:02:53,802.11,425,50:c7:bf:6b:77:d5,44:85:00:32:02:53,50:c7:bf:6b:77:d5,44:85:00:32:02:53,"Probe Response, SN=1769, FN=0, Flags=....R..., BI=100, SSID=Wijffie"
90,63.47645,SitecomE_90:f4:80,Broadcast,802.11,373,00:0c:f6:90:f4:80,ff:ff:ff:ff:ff:ff,00:0c:f6:90:f4:80,ff:ff:ff:ff:ff:ff,"Beacon frame, SN=2866, FN=0, Flags=........, BI=100, SSID=Sitecom90F480"
91,63.478785,Tp-LinkT_6b:77:d5,Broadcast,802.11,328,50:c7:bf:6b:77:d5,ff:ff:ff:ff:ff:ff,50:c7:bf:6b:77:d5,ff:ff:ff:ff:ff:ff,"Beacon frame, SN=1770, FN=0, Flags=........, BI=100, SSID=Wijffie"
92,63.484761,SitecomE_3d:15:05,Broadcast,802.11,336,64:d1:a3:3d:15:05,ff:ff:ff:ff:ff:ff,64:d1:a3:3d:15:05,ff:ff:ff:ff:ff:ff,"Beacon frame, SN=1521, FN=0, Flags=........, BI=100, SSID=Cobra"
93,63.486608,Netgear_9b:a4:44,Broadcast,802.11,143,00:18:4d:9b:a4:44,ff:ff:ff:ff:ff:ff,00:18:4d:9b:a4:44,ff:ff:ff:ff:ff:ff,"Beacon frame, SN=3991, FN=0, Flags=........, BI=100, SSID=J"
94,63.526118,Tp-LinkT_1f:85:93,Broadcast,802.11,275,f4:83:cd:1f:85:93,ff:ff:ff:ff:ff:ff,f4:83:cd:1f:85:93,ff:ff:ff:ff:ff:ff,"Beacon frame, SN=3868, FN=0, Flags=........, BI=100, SSID=TP-LINK_zj"
95,63.543071,SitecomE_94:e2:9d,Broadcast,802.11,313,00:0c:f6:94:e2:9d,ff:ff:ff:ff:ff:ff,00:0c:f6:94:e2:9d,ff:ff:ff:ff:ff:ff,"Beacon frame, SN=1429, FN=0, Flags=........, BI=100, SSID=2400000000Hz Kvz 165 Internet"
96,63.563159,Tp-LinkT_52:f2:2a,Broadcast,802.11,258,e8:de:27:52:f2:2a,ff:ff:ff:ff:ff:ff,e8:de:27:52:f2:2a,ff:ff:ff:ff:ff:ff,"Beacon frame, SN=2400, FN=0, Flags=........, BI=100, SSID=aajeto outpost 4"
97,63.565793,BelkinIn_7b:68:e6,Broadcast,802.11,350,14:91:82:7b:68:e6,ff:ff:ff:ff:ff:ff,14:91:82:7b:68:e6,ff:ff:ff:ff:ff:ff,"Beacon frame, SN=3664, FN=0, Flags=........, BI=100, SSID=FryslanBoppe"
98,63.567445,BelkinIn_7b:68:e8,Broadcast,802.11,248,14:91:82:7b:68:e8,ff:ff:ff:ff:ff:ff,14:91:82:7b:68:e8,ff:ff:ff:ff:ff:ff,"Beacon frame, SN=3665, FN=0, Flags=........, BI=100, SSID=FryslanBoppe-gast"
99,126.061957,Cisco-Li_18:78:d0,IntelCor_32:02:53,802.11,419,58:6d:8f:18:78:d0,44:85:00:32:02:53,58:6d:8f:18:78:d0,44:85:00:32:02:53,"Probe Response, SN=809, FN=0, Flags=........, BI=100, SSID=Artikel 87 van de Reglementen"
100,126.072098,a2:2b:b0:a5:4b:e2,IntelCor_32:02:53,802.11,283,a2:2b:b0:a5:4b:e2,44:85:00:32:02:53,a2:2b:b0:a5:4b:e2,44:85:00:32:02:53,"Probe Response, SN=390, FN=0, Flags=....R..., BI=100, SSID=MP Guest"
101,126.075594,TendaTec_48:b2:e0,IntelCor_32:02:53,802.11,329,c8:3a:35:48:b2:e0,44:85:00:32:02:53,c8:3a:35:48:b2:e0,44:85:00:32:02:53,"Probe Response, SN=3656, FN=0, Flags=........, BI=100, SSID=Arezzo_in_Air"
102,126.081603,Cisco-Li_9e:fc:cd,IntelCor_32:02:53,802.11,226,c8:d7:19:9e:fc:cd,44:85:00:32:02:53,c8:d7:19:9e:fc:cd,44:85:00:32:02:53,"Probe Response, SN=188, FN=0, Flags=........, BI=100, SSID=Ruch's Netwerk-guest"
103,126.085756,BelkinIn_31:48:69,IntelCor_32:02:53,802.11,397,c0:56:27:31:48:69,44:85:00:32:02:53,c0:56:27:31:48:69,44:85:00:32:02:53,"Probe Response, SN=1665, FN=0, Flags=....R..., BI=100, SSID=Dapdapdapdapdap"
104,126.088106,BelkinIn_31:48:6a,IntelCor_32:02:53,802.11,227,c0:56:27:31:48:6a,44:85:00:32:02:53,c0:56:27:31:48:6a,44:85:00:32:02:53,"Probe Response, SN=1666, FN=0, Flags=........, BI=100, SSID=Dapdapdapdapdap-guest"
105,126.092239,BelkinIn_8d:01:74,IntelCor_32:02:53,802.11,406,14:91:82:8d:01:74,44:85:00:32:02:53,14:91:82:8d:01:74,44:85:00:32:02:53,"Probe Response, SN=1494, FN=0, Flags=....R..., BI=100, SSID=JG-wifi"
106,126.095572,Netgear_24:af:22,IntelCor_32:02:53,802.11,232,c0:3f:0e:24:af:22,44:85:00:32:02:53,c0:3f:0e:24:af:22,44:85:00:32:02:53,"Probe Response, SN=329, FN=0, Flags=....R..., BI=100, SSID=Los Morenos en Camelot"
107,126.101891,Tp-LinkT_a5:4b:e2,Broadcast,802.11,283,a4:2b:b0:a5:4b:e2,ff:ff:ff:ff:ff:ff,a4:2b:b0:a5:4b:e2,ff:ff:ff:ff:ff:ff,"Beacon frame, SN=2140, FN=0, Flags=........, BI=100, SSID=MP"
108,126.107949,TendaTec_48:b2:e0,Broadcast,802.11,335,c8:3a:35:48:b2:e0,ff:ff:ff:ff:ff:ff,c8:3a:35:48:b2:e0,ff:ff:ff:ff:ff:ff,"Beacon frame, SN=3657, FN=0, Flags=........, BI=100, SSID=Arezzo_in_Air"
109,126.10957,BelkinIn_50:8e:4f,Broadcast,802.11,222,58:ef:68:50:8e:4f,ff:ff:ff:ff:ff:ff,58:ef:68:50:8e:4f,ff:ff:ff:ff:ff:ff,"Beacon frame, SN=3876, FN=0, Flags=........, BI=100, SSID=Stijn-gast"
110,126.113843,Netgear_24:af:22,Broadcast,802.11,238,c0:3f:0e:24:af:22,ff:ff:ff:ff:ff:ff,c0:3f:0e:24:af:22,ff:ff:ff:ff:ff:ff,"Beacon frame, SN=330, FN=0, Flags=........, BI=100, SSID=Los Morenos en Camelot"
111,126.119295,fa:8f:ca:77:32:ae,Broadcast,802.11,199,fa:8f:ca:77:32:ae,ff:ff:ff:ff:ff:ff,fa:8f:ca:77:32:ae,ff:ff:ff:ff:ff:ff,"Beacon frame, SN=1142, FN=0, Flags=........, BI=100, SSID=Broadcast"
112,126.121603,Cisco-Li_9e:fc:cc,Broadcast,802.11,308,c8:d7:19:9e:fc:cc,ff:ff:ff:ff:ff:ff,c8:d7:19:9e:fc:cc,ff:ff:ff:ff:ff:ff,"Beacon frame, SN=189, FN=0, Flags=........, BI=100, SSID=Ruch's Netwerk"
113,126.127584,HuaweiTe_48:a3:d0,Broadcast,802.11,384,c8:94:bb:48:a3:d0,ff:ff:ff:ff:ff:ff,c8:94:bb:48:a3:d0,ff:ff:ff:ff:ff:ff,"Beacon frame, SN=2804, FN=0, Flags=........, BI=100, SSID=HUAWEI-FLUQE7"
114,126.144258,SitecomE_1f:94:20,Broadcast,802.11,329,64:d1:a3:1f:94:20,ff:ff:ff:ff:ff:ff,64:d1:a3:1f:94:20,ff:ff:ff:ff:ff:ff,"Beacon frame, SN=1982, FN=0, Flags=........, BI=100, SSID=Sitecom1F9420"
115,126.148659,Tp-LinkT_99:dd:53,Broadcast,802.11,331,50:c7:bf:99:dd:53,ff:ff:ff:ff:ff:ff,50:c7:bf:99:dd:53,ff:ff:ff:ff:ff:ff,"Beacon frame, SN=856, FN=0, Flags=........, BI=100, SSID=TP-LINK_DD54"
116,126.15103,BelkinIn_8d:01:74,Broadcast,802.11,320,14:91:82:8d:01:74,ff:ff:ff:ff:ff:ff,14:91:82:8d:01:74,ff:ff:ff:ff:ff:ff,"Beacon frame, SN=1495, FN=0, Flags=........, BI=100, SSID=JG-wifi"
117,126.154059,a2:2b:b0:a5:4b:e2,Broadcast,802.11,289,a2:2b:b0:a5:4b:e2,ff:ff:ff:ff:ff:ff,a2:2b:b0:a5:4b:e2,ff:ff:ff:ff:ff:ff,"Beacon frame, SN=391, FN=0, Flags=........, BI=100, SSID=MP Guest"
118,126.157259,BelkinIn_2a:27:3c,Broadcast,802.11,301,58:ef:68:2a:27:3c,ff:ff:ff:ff:ff:ff,58:ef:68:2a:27:3c,ff:ff:ff:ff:ff:ff,"Beacon frame, SN=183, FN=0, Flags=........, BI=100, SSID=sidwifi"
119,126.158868,BelkinIn_2a:27:3d,Broadcast,802.11,225,58:ef:68:2a:27:3d,ff:ff:ff:ff:ff:ff,58:ef:68:2a:27:3d,ff:ff:ff:ff:ff:ff,"Beacon frame, SN=184, FN=0, Flags=........, BI=100, SSID=sidwifi-guest"
120,126.169008,Tp-LinkT_cd:4b:28,Broadcast,802.11,277,c0:4a:00:cd:4b:28,ff:ff:ff:ff:ff:ff,c0:4a:00:cd:4b:28,ff:ff:ff:ff:ff:ff,"Beacon frame, SN=2857, FN=0, Flags=........, BI=100, SSID=mentos"
121,126.196175,AsustekC_7b:f5:38,IntelCor_32:02:53,802.11,314,ac:9e:17:7b:f5:38,44:85:00:32:02:53,ac:9e:17:7b:f5:38,44:85:00:32:02:53,"Probe Response, SN=3369, FN=0, Flags=....R..., BI=100, SSID=bus24.regiohaaglanden.aivd.nl"
122,126.199725,Tp-LinkT_cd:4b:28,IntelCor_32:02:53,802.11,438,c0:4a:00:cd:4b:28,44:85:00:32:02:53,c0:4a:00:cd:4b:28,44:85:00:32:02:53,"Probe Response, SN=2859, FN=0, Flags=........, BI=100, SSID=mentos[Malformed Packet]"
123,126.203275,Tp-LinkT_a4:79:d2,IntelCor_32:02:53,802.11,407,18:d6:c7:a4:79:d2,44:85:00:32:02:53,18:d6:c7:a4:79:d2,44:85:00:32:02:53,"Probe Response, SN=1596, FN=0, Flags=........, BI=100, SSID=TP-LINK_79D2"
124,126.207604,AsustekC_7b:f5:39,IntelCor_32:02:53,802.11,307,ac:9e:17:7b:f5:39,44:85:00:32:02:53,ac:9e:17:7b:f5:39,44:85:00:32:02:53,"Probe Response, SN=3370, FN=0, Flags=....R..., BI=100, SSID=cam24.korvezee.aivd.nl"
125,126.212443,Tp-LinkT_a4:79:d2,IntelCor_32:02:53,802.11,407,18:d6:c7:a4:79:d2,44:85:00:32:02:53,18:d6:c7:a4:79:d2,44:85:00:32:02:53,"Probe Response, SN=1598, FN=0, Flags=........, BI=100, SSID=TP-LINK_79D2"
126,126.218769,D-LinkIn_39:0b:20,IntelCor_32:02:53,802.11,404,c8:d3:a3:39:0b:20,44:85:00:32:02:53,c8:d3:a3:39:0b:20,44:85:00:32:02:53,"Probe Response, SN=2505, FN=0, Flags=........, BI=100, SSID=TigerStyle"
127,126.222302,D-LinkIn_39:0b:20,IntelCor_32:02:53,802.11,404,c8:d3:a3:39:0b:20,44:85:00:32:02:53,c8:d3:a3:39:0b:20,44:85:00:32:02:53,"Probe Response, SN=2506, FN=0, Flags=........, BI=100, SSID=TigerStyle"
128,126.249281,Tp-LinkT_dd:08:06,IntelCor_32:02:53,802.11,445,10:fe:ed:dd:08:06,44:85:00:32:02:53,10:fe:ed:dd:08:06,44:85:00:32:02:53,"Probe Response, SN=505, FN=0, Flags=........, BI=100, SSID=patatasbravas[Malformed Packet]"
129,126.268193,HewlettP_e9:d9:ef,IntelCor_32:02:53,802.11,219,c4:34:6b:e9:d9:ef,44:85:00:32:02:53,c4:34:6b:e9:d9:ef,44:85:00:32:02:53,"Probe Response, SN=3922, FN=0, Flags=........, BI=100, SSID=HP-Print-EF-Photosmart 5520"
130,126.271327,Cisco-Li_68:19:dc,Broadcast,802.11,172,00:18:f8:68:19:dc,ff:ff:ff:ff:ff:ff,00:18:f8:68:19:dc,ff:ff:ff:ff:ff:ff,"Beacon frame, SN=3802, FN=0, Flags=........, BI=100, SSID=Huize KTV GR"
131,126.322354,Netgear_e1:68:66,Broadcast,802.11,329,c0:3f:0e:e1:68:66,ff:ff:ff:ff:ff:ff,c0:3f:0e:e1:68:66,ff:ff:ff:ff:ff:ff,"Beacon frame, SN=3655, FN=0, Flags=........, BI=100, SSID=Regel je eigen wifi"
132,126.32931,Tp-LinkT_fe:77:d6,Broadcast,802.11,289,c4:6e:1f:fe:77:d6,ff:ff:ff:ff:ff:ff,c4:6e:1f:fe:77:d6,ff:ff:ff:ff:ff:ff,"Beacon frame, SN=2695, FN=0, Flags=........, BI=100, SSID=Avincado"
133,126.361219,AsustekC_69:08:a0,Broadcast,802.11,317,38:2c:4a:69:08:a0,ff:ff:ff:ff:ff:ff,38:2c:4a:69:08:a0,ff:ff:ff:ff:ff:ff,"Beacon frame, SN=1391, FN=0, Flags=........, BI=100, SSID=Stem Stijn de Vreede VVD nr.7! "
134,126.363356,AsustekC_69:08:a1,Broadcast,802.11,289,38:2c:4a:69:08:a1,ff:ff:ff:ff:ff:ff,38:2c:4a:69:08:a1,ff:ff:ff:ff:ff:ff,"Beacon frame, SN=1392, FN=0, Flags=........, BI=100, SSID=Stem Stijn de Vreede VVD nr.7"
135,126.365393,AsustekC_69:08:a2,Broadcast,802.11,289,38:2c:4a:69:08:a2,ff:ff:ff:ff:ff:ff,38:2c:4a:69:08:a2,ff:ff:ff:ff:ff:ff,"Beacon frame, SN=1393, FN=0, Flags=........, BI=100, SSID=Stem Stijn de Vreede VVD nr.7"
136,126.375148,Tp-LinkT_51:96:f6,IntelCor_32:02:53,802.11,230,f8:1a:67:51:96:f6,44:85:00:32:02:53,f8:1a:67:51:96:f6,44:85:00:32:02:53,"Probe Response, SN=549, FN=0, Flags=........, BI=100, SSID=botnet"
137,126.400139,Tp-LinkT_8f:0e:6a,IntelCor_32:02:53,802.11,403,84:16:f9:8f:0e:6a,44:85:00:32:02:53,84:16:f9:8f:0e:6a,44:85:00:32:02:53,"Probe Response, SN=3059, FN=0, Flags=........, BI=100, SSID=TP-LINK_0E6A"
138,126.404296,Tp-LinkT_9e:b9:c8,IntelCor_32:02:53,802.11,446,30:b5:c2:9e:b9:c8,44:85:00:32:02:53,30:b5:c2:9e:b9:c8,44:85:00:32:02:53,"Probe Response, SN=3625, FN=0, Flags=....R..., BI=100, SSID=TP-LINK_9EB9C8[Malformed Packet]"
139,126.435282,Tp-LinkT_e5:4c:84,IntelCor_32:02:53,802.11,436,84:16:f9:e5:4c:84,44:85:00:32:02:53,84:16:f9:e5:4c:84,44:85:00:32:02:53,"Probe Response, SN=349, FN=0, Flags=....R..., BI=100, SSID=How Deep Is Your Love"
140,126.448169,SitecomE_3c:97:f9,Broadcast,802.11,286,64:d1:a3:3c:97:f9,ff:ff:ff:ff:ff:ff,64:d1:a3:3c:97:f9,ff:ff:ff:ff:ff:ff,"Beacon frame, SN=1003, FN=0, Flags=........, BI=100, SSID=Tintin"
141,126.465548,D-LinkIn_60:51:3c,IntelCor_32:02:53,802.11,441,c8:be:19:60:51:3c,44:85:00:32:02:53,c8:be:19:60:51:3c,44:85:00:32:02:53,"Probe Response, SN=257, FN=0, Flags=........, BI=100, SSID=Sibolangit"
142,126.478577,SitecomE_90:f4:80,IntelCor_32:02:53,802.11,477,00:0c:f6:90:f4:80,44:85:00:32:02:53,00:0c:f6:90:f4:80,44:85:00:32:02:53,"Probe Response, SN=1622, FN=0, Flags=........, BI=100, SSID=Sitecom90F480"
143,126.482203,Tp-LinkT_e5:4c:84,IntelCor_32:02:53,802.11,436,84:16:f9:e5:4c:84,44:85:00:32:02:53,84:16:f9:e5:4c:84,44:85:00:32:02:53,"Probe Response, SN=351, FN=0, Flags=....R..., BI=100, SSID=How Deep Is Your Love"
144,126.486691,Cisco-Li_fc:2c:83,Broadcast,802.11,157,00:1d:7e:fc:2c:83,ff:ff:ff:ff:ff:ff,00:1d:7e:fc:2c:83,ff:ff:ff:ff:ff:ff,"Beacon frame, SN=3597, FN=0, Flags=........, BI=100, SSID=KVZ 120"
145,126.500296,SitecomE_e7:2f:20,Broadcast,802.11,310,00:0c:f6:e7:2f:20,ff:ff:ff:ff:ff:ff,00:0c:f6:e7:2f:20,ff:ff:ff:ff:ff:ff,"Beacon frame, SN=1010, FN=0, Flags=........, BI=100, SSID=KVZ187"
146,126.515238,Tp-LinkT_6b:77:d5,Broadcast,802.11,328,50:c7:bf:6b:77:d5,ff:ff:ff:ff:ff:ff,50:c7:bf:6b:77:d5,ff:ff:ff:ff:ff:ff,"Beacon frame, SN=2473, FN=0, Flags=........, BI=100, SSID=Wijffie"
147,126.520312,SitecomE_94:e2:9d,Broadcast,802.11,313,00:0c:f6:94:e2:9d,ff:ff:ff:ff:ff:ff,00:0c:f6:94:e2:9d,ff:ff:ff:ff:ff:ff,"Beacon frame, SN=2044, FN=0, Flags=........, BI=100, SSID=2400000000Hz Kvz 165 Internet"
148,126.539964,Tp-LinkT_52:f2:2a,Broadcast,802.11,258,e8:de:27:52:f2:2a,ff:ff:ff:ff:ff:ff,e8:de:27:52:f2:2a,ff:ff:ff:ff:ff:ff,"Beacon frame, SN=3077, FN=0, Flags=........, BI=100, SSID=aajeto outpost 4"
149,126.542613,BelkinIn_7b:68:e6,Broadcast,802.11,350,14:91:82:7b:68:e6,ff:ff:ff:ff:ff:ff,14:91:82:7b:68:e6,ff:ff:ff:ff:ff:ff,"Beacon frame, SN=861, FN=0, Flags=........, BI=100, SSID=FryslanBoppe"
150,126.544396,BelkinIn_7b:68:e8,Broadcast,802.11,248,14:91:82:7b:68:e8,ff:ff:ff:ff:ff:ff,14:91:82:7b:68:e8,ff:ff:ff:ff:ff:ff,"Beacon frame, SN=862, FN=0, Flags=........, BI=100, SSID=FryslanBoppe-gast"
151,126.548416,SitecomE_90:f4:80,Broadcast,802.11,373,00:0c:f6:90:f4:80,ff:ff:ff:ff:ff:ff,00:0c:f6:90:f4:80,ff:ff:ff:ff:ff:ff,"Beacon frame, SN=3482, FN=0, Flags=........, BI=100, SSID=Sitecom90F480"
152,126.563063,SitecomE_3d:15:05,Broadcast,802.11,336,64:d1:a3:3d:15:05,ff:ff:ff:ff:ff:ff,64:d1:a3:3d:15:05,ff:ff:ff:ff:ff:ff,"Beacon frame, SN=2137, FN=0, Flags=........, BI=100, SSID=Cobra"
153,126.565075,Tp-LinkT_1f:85:93,Broadcast,802.11,275,f4:83:cd:1f:85:93,ff:ff:ff:ff:ff:ff,f4:83:cd:1f:85:93,ff:ff:ff:ff:ff:ff,"Beacon frame, SN=730, FN=0, Flags=........, BI=100, SSID=TP-LINK_zj"
154,126.607221,BelkinIn_0e:59:70,IntelCor_32:02:53,802.11,430,58:ef:68:0e:59:70,44:85:00:32:02:53,58:ef:68:0e:59:70,44:85:00:32:02:53,"Probe Response, SN=765, FN=0, Flags=....R..., BI=100, SSID=KP"
155,126.610833,BelkinIn_0e:59:70,IntelCor_32:02:53,802.11,430,58:ef:68:0e:59:70,44:85:00:32:02:53,58:ef:68:0e:59:70,44:85:00:32:02:53,"Probe Response, SN=765, FN=0, Flags=....R..., BI=100, SSID=KP"
156,126.613099,5a:ef:68:0e:59:71,IntelCor_32:02:53,802.11,247,5a:ef:68:0e:59:71,44:85:00:32:02:53,5a:ef:68:0e:59:71,44:85:00:32:02:53,"Probe Response, SN=766, FN=0, Flags=........, BI=100, SSID=KP-guest"
157,126.62542,Tp-LinkT_1f:85:95,IntelCor_32:02:53,802.11,296,f4:83:cd:1f:85:95,44:85:00:32:02:53,f4:83:cd:1f:85:95,44:85:00:32:02:53,"Probe Response, SN=2442, FN=0, Flags=........, BI=100, SSID=TP-LINK_Domestic"
158,126.637298,Tp-LinkT_1f:85:95,Broadcast,802.11,302,f4:83:cd:1f:85:95,ff:ff:ff:ff:ff:ff,f4:83:cd:1f:85:95,ff:ff:ff:ff:ff:ff,"Beacon frame, SN=2443, FN=0, Flags=........, BI=100, SSID=TP-LINK_Domestic"
